<svg xmlns="http://www.w3.org/2000/svg" width="44" height="41" viewBox="0 0 44 41">
    <title>service icon</title>
    <path d="M37.899 40.417h-.001a5.813 5.813 0 0 1-4.138-1.715L14.654 18.566l-1.093 1.174-3.476 3.477L.5 13.631l4.524-4.525 1.231.828a1.3 1.3 0 0 0 .546.155c.098 0 .215-.014.388-.186.352-.352.563-.849.855-1.538.583-1.371 1.38-3.249 3.919-5.16C14.108 1.59 16.757.77 19.833.77c4.89 0 9.203 2.096 9.385 2.185l-.615 3.408c-2.988.299-8.213 1.373-5.979 3.617l19.437 20.469a5.8 5.8 0 0 1 1.69 4.114 5.817 5.817 0 0 1-1.714 4.139 5.818 5.818 0 0 1-4.138 1.715zM21.066 19.93l15.263 16.249c.803.801 2.308.827 3.161-.023a2.248 2.248 0 0 0-.001-3.185L24.248 16.747zM5.594 13.631l4.491 4.492.039-.04c-.25-1.004-.105-2.205.944-3.253.623-.622 1.401-.953 2.252-.953 1.173 0 2.355.614 3.613 1.873l1.609 1.609 3.183-3.184-1.648-1.648c-2.111-2.112-1.852-4.038-1.51-4.997.443-1.241 1.454-2.266 2.992-3.055a15.053 15.053 0 0 0-1.726-.103c-2.277 0-4.197.576-5.704 1.711-1.767 1.33-2.253 2.476-2.769 3.689-.383.901-.777 1.831-1.624 2.677-.813.813-1.827 1.242-2.935 1.242a4.48 4.48 0 0 1-1.123-.145zm22.52-3.12l6.433-6.358a5.364 5.364 0 0 1 3.808-1.581c1.376 0 2.756.526 3.808 1.581a5.403 5.403 0 0 1 1.588 3.829 5.359 5.359 0 0 1-1.573 3.802l-6.63 6.554-1.823-1.918 6.114-6.041a.774.774 0 0 0-.002-1.097.776.776 0 0 0-1.1-.002l-6.082 6.01-1.561-1.643 6.04-5.971a.779.779 0 1 0-1.104-1.101l-6.012 5.94zM16.985 26.302l-7.44 7.197c-.411.411-.907.733-1.422 1.004l-1.045.544-1.847 3.867 1.501 1.503 3.786-1.929.542-1.046a5.937 5.937 0 0 1 1.034-1.395l7.372-7.131z"
          fill="#ffca19"/>
</svg>