<svg xmlns="http://www.w3.org/2000/svg" width="86" height="39" viewBox="0 0 86 39">
    <title>car</title>
    <path d="M84.29 15.87h-3.2L79.22 5.18c-.1-.54-.58-.94-1.13-.94H65.08V1.17c0-.63-.52-1.14-1.15-1.14H23.49c-.63 0-1.14.51-1.14 1.14V31.3c0 .63.51 1.15 1.14 1.15h5.83a7.077 7.077 0 0 0 6.98 5.93c3.51 0 6.44-2.58 6.98-5.93h21.36c.55 3.36 3.47 5.93 6.98 5.93 3.52 0 6.43-2.58 6.98-5.93h5.69c.64 0 1.15-.52 1.15-1.15V17.01c0-.64-.51-1.14-1.15-1.14zM41.07 31.59a4.784 4.784 0 0 1-9.56-.29 4.784 4.784 0 1 1 9.56.29zm30.55 4.49c-2.55 0-4.64-2-4.78-4.53v-.5c.14-2.52 2.23-4.53 4.78-4.53 2.64 0 4.79 2.14 4.79 4.78s-2.15 4.78-4.79 4.78zm11.53-5.93H78.6a7.077 7.077 0 0 0-6.98-5.92c-3.51 0-6.43 2.57-6.98 5.92H43.28c-.54-3.35-3.47-5.92-6.98-5.92-3.51 0-6.44 2.57-6.98 5.92h-4.68V2.32h38.15v15.02c0 .64.51 1.15 1.14 1.15.63 0 1.15-.51 1.15-1.15V6.53h12.04l1.87 10.68c.1.55.58.95 1.14.95h3.02zm-64.66-8.32H4.01c-.63 0-1.14.51-1.14 1.15 0 .63.51 1.14 1.14 1.14h14.48c.63 0 1.14-.51 1.14-1.14 0-.64-.51-1.15-1.14-1.15zm0-13.48H1.59c-.63 0-1.15.52-1.15 1.14 0 .64.52 1.14 1.15 1.14h16.9c.63 0 1.14-.5 1.14-1.14 0-.62-.51-1.14-1.14-1.14zm0 6.74H8.33c-.63 0-1.15.51-1.15 1.15 0 .63.52 1.14 1.15 1.14h10.16c.63 0 1.14-.51 1.14-1.14 0-.64-.51-1.15-1.14-1.15z"
          fill="#ffd547"/>
</svg>