<svg xmlns="http://www.w3.org/2000/svg" width="29" height="23" viewBox="0 0 29 23">
    <title>Shape 142</title>
    <path fill="#1c6bc4"
          d="M16.135 19.009c.66 0 .939-.45.93-1-.039-2.1.78-3.229 2.25-1.76 1.631 1.63 1.971 2.76 3.951 2.76h3.5c2.76 0 .299-2.77-1.641-4.569-1.85-1.711-1.93-1.75-.34-3.82 1.97-2.56 4.55-5.86 2.27-5.86h-4.359c-.851 0-.91.5-1.211 1.21-1.09 2.57-3.16 5.889-3.939 5.389-.83-.539-.45-2.34-.391-5.459.021-.83.021-1.4-1.25-1.69-3.439-.8-6.43.77-5.209 1 1.719.32 1.56 3.74 1.16 5.351-.701 2.799-3.33-2.221-4.42-4.71-.271-.6-.351-1.09-1.291-1.09h-3.56c-.69 0-1.03.32-.79.96.24.63 3 6.8 6.26 10.319 3.02 3.259 6 2.969 8.08 2.969z"/>
</svg>