<svg xmlns="http://www.w3.org/2000/svg" width="33" height="47" viewBox="0 0 33 47">
    <title>phone icon</title>
    <path d="M5.082 3.054C5.146 3.022 10.577.5 10.577.5l7.809 15.246-5.264 2.592c-1.04 2.432 4.172 12.151 6.37 12.312.174-.112 5.163-2.565 5.163-2.565l7.943 15.327s-5.341 2.618-5.516 2.699C11.89 53.048-9.83 10.829 5.082 3.054zm3.729 2.463l-1.977.974c-10.229 5.337 8.073 40.937 18.646 36.108a315.36 315.36 0 0 0 1.875-.915l-4.387-8.469c-.927.454-1.9.93-1.983.968C14.873 37.172 5.02 18.3 11.217 14.977l1.947-.961z"
          fill="#ffca19"/>
</svg>