<svg xmlns:xlink="http://www.w3.org/1999/xlink" xmlns="http://www.w3.org/2000/svg" width="20" height="35.27"
     viewBox="0 0 20 35.27">
    <path fill="none" d="M.024 35.27v-17h18v17h-18z"/>
    <defs>
        <path id="a" d="M.024 18.27h18v17h-18z"/>
    </defs>
    <clipPath id="b">
        <use xlink:href="#a" overflow="visible"/>
    </clipPath>
    <path clip-path="url(#b)" fill="none" stroke="#BFBFBF" stroke-width="2" stroke-linecap="round"
          stroke-linejoin="round" stroke-miterlimit="50" stroke-dasharray="0" d="M.024 35.27v-17h18v17h-18z"/>
    <path fill="#010101" d="M9.723 31.62l-6.7-6.42 1.992-2.08 4.426 4.24L17.729 17l2.247 1.8L9.723 31.62z"/>
    <path fill="none" d="M.024 17V0h18v17h-18z"/>
    <defs>
        <path id="c" d="M.024 0h18v17h-18z"/>
    </defs>
    <clipPath id="d">
        <use xlink:href="#c" overflow="visible"/>
    </clipPath>
    <path clip-path="url(#d)" fill="none" stroke="#BFBFBF" stroke-width="2" stroke-linecap="round"
          stroke-linejoin="round" stroke-miterlimit="50" stroke-dasharray="0" d="M.024 17V0h18v17h-18z"/>
</svg>