<svg xmlns="http://www.w3.org/2000/svg" width="8" height="16" viewBox="0 0 8 16">
    <title>facebook</title>
    <path fill="#FDA324"
          d="M1.98 5.28H.37V7.9h1.61v7.71h3.09V7.87h2.15l.229-2.59H5.07V3.8c0-.61.119-.85.709-.85h1.67V.26H5.31c-2.3 0-3.331 1.01-3.331 2.95l.001 2.07z"/>
</svg>