<svg xmlns="http://www.w3.org/2000/svg" width="11" height="23" viewBox="0 0 11 23">
    <title>back</title>
    <path d="M9.078 22.01l1.529-1.24-7.628-9.39 7.628-9.39L9.078.75.439 11.38z" fill="#fff"/>
</svg>