<svg xmlns="http://www.w3.org/2000/svg" width="26" height="26" viewBox="0 0 26 26">
    <title>mail</title>
    <path d="M13.215.5L.951 9.422v15.627H25.5V9.422zm.001 2.529l10.018 7.276-6.89 4.693-3.119-2.527-3.119 2.527-6.89-4.694zm-10.22 9.6l5.451 3.714-5.451 4.416zm.485 10.375l9.744-7.9 9.745 7.9zm19.973-2.245l-5.45-4.416 5.45-3.714z"
          fill="#ffca19"/>
</svg>