<svg xmlns="http://www.w3.org/2000/svg" width="34" height="32" viewBox="0 0 34 32">
    <title>new</title>
    <path d="M18.08 13.456v3.165h3.03v1.35h-3.03v3.208h-1.43v-3.208h-3.03v-1.35h3.03v-3.165zM7.44 31.575l1.8-11.367-8.35-7.919 11.36-1.809L17.2.094l5.24 10.248 11.4 1.501-8.13 8.142 2.1 11.314-10.25-5.216zm-.71-17.476l5.4 5.126-1.16 7.357 6.54-3.555 6.64 3.376-1.36-7.323 5.27-5.27-7.39-.971-3.38-6.634-3.21 6.723z"
          fill="#17cc5b"/>
</svg>