<svg xmlns="http://www.w3.org/2000/svg" width="25" height="35" viewBox="0 0 25 35">
    <title>phone</title>
    <path d="M3.953 2.31C4 2.287 8.021.419 8.021.419l5.782 11.288-3.897 1.919c-.77 1.801 3.088 8.998 4.716 9.116.128-.082 3.823-1.898 3.823-1.898l5.88 11.348s-3.954 1.937-4.084 1.998C8.993 39.326-7.089 8.067 3.953 2.31zm2.761 1.824c-.693.342-1.421.701-1.464.721-7.574 3.952 5.977 30.31 13.805 26.734.101-.047.752-.364 1.389-.677l-3.249-6.271c-.686.337-1.407.689-1.468.717-4.525 2.213-11.82-11.76-7.232-14.22l1.441-.711z"
          fill="#ffc419"/>
</svg>