<svg xmlns="http://www.w3.org/2000/svg" width="18" height="16" viewBox="0 0 18 16">
    <title>true</title>
    <path d="M7.698 15.35L.999 8.93l1.992-2.08 4.426 4.24L15.704.73l2.247 1.8z" fill="#27ae19"/>
</svg>